{
    "annotations": {
      "list": [
        {
          "builtIn": 1,
          "datasource": "-- Grafana --",
          "enable": true,
          "hide": true,
          "iconColor": "rgba(0, 211, 255, 1)",
          "name": "Annotations & Alerts",
          "type": "dashboard"
        }
      ]
    },
    "description": "All relevant information during the race",
    "editable": true,
    "gnetId": null,
    "graphTooltip": 0,
    "id": 1,
    "links": [],
    "panels": [
      {
        "datasource": null,
        "fieldConfig": {
          "defaults": {
            "color": {
              "mode": "thresholds"
            },
            "decimals": 3,
            "mappings": [],
            "thresholds": {
              "mode": "absolute",
              "steps": [
                {
                  "color": "green",
                  "value": null
                }
              ]
            },
            "unit": "none"
          },
          "overrides": []
        },
        "gridPos": {
          "h": 5,
          "w": 6,
          "x": 0,
          "y": 0
        },
        "id": 15,
        "options": {
          "colorMode": "value",
          "graphMode": "none",
          "justifyMode": "auto",
          "orientation": "auto",
          "reduceOptions": {
            "calcs": [
              "lastNotNull"
            ],
            "fields": "",
            "values": false
          },
          "text": {},
          "textMode": "auto"
        },
        "pluginVersion": "7.5.1",
        "targets": [
          {
            "groupBy": [
              {
                "params": [
                  "$__interval"
                ],
                "type": "time"
              },
              {
                "params": [
                  "null"
                ],
                "type": "fill"
              }
            ],
            "orderByTime": "ASC",
            "policy": "default",
            "query": "from(bucket: \"f1telemetry\")\n  |> range(start: v.timeRangeStart, stop:v.timeRangeStop)\n  |> filter(fn: (r) =>\n    r._measurement == \"test_database\" and\n    r._field == \"currentLapTime\"\n  )",
            "refId": "A",
            "resultFormat": "time_series",
            "select": [
              [
                {
                  "params": [
                    "value"
                  ],
                  "type": "field"
                },
                {
                  "params": [],
                  "type": "mean"
                }
              ]
            ],
            "tags": []
          }
        ],
        "title": "Current Laptime",
        "type": "stat"
      },
      {
        "aliasColors": {},
        "bars": false,
        "dashLength": 10,
        "dashes": false,
        "datasource": null,
        "fieldConfig": {
          "defaults": {},
          "overrides": []
        },
        "fill": 0,
        "fillGradient": 2,
        "gridPos": {
          "h": 5,
          "w": 9,
          "x": 6,
          "y": 0
        },
        "hiddenSeries": false,
        "id": 16,
        "legend": {
          "avg": false,
          "current": false,
          "max": false,
          "min": false,
          "show": false,
          "total": false,
          "values": false
        },
        "lines": true,
        "linewidth": 2,
        "nullPointMode": "null",
        "options": {
          "alertThreshold": true
        },
        "percentage": false,
        "pluginVersion": "7.5.1",
        "pointradius": 1,
        "points": false,
        "renderer": "flot",
        "seriesOverrides": [],
        "spaceLength": 10,
        "stack": false,
        "steppedLine": false,
        "targets": [
          {
            "groupBy": [
              {
                "params": [
                  "$__interval"
                ],
                "type": "time"
              },
              {
                "params": [
                  "null"
                ],
                "type": "fill"
              }
            ],
            "orderByTime": "ASC",
            "policy": "default",
            "query": "from(bucket: \"f1telemetry\")\n  |> range(start: v.timeRangeStart, stop:v.timeRangeStop)\n  |> filter(fn: (r) =>\n    r._measurement == \"test_database\" and\n    r._field == \"lastLapTime\"\n  )",
            "refId": "A",
            "resultFormat": "time_series",
            "select": [
              [
                {
                  "params": [
                    "value"
                  ],
                  "type": "field"
                },
                {
                  "params": [],
                  "type": "mean"
                }
              ]
            ],
            "tags": []
          }
        ],
        "thresholds": [],
        "timeFrom": null,
        "timeRegions": [],
        "timeShift": null,
        "title": "Last Laptimes",
        "tooltip": {
          "shared": true,
          "sort": 0,
          "value_type": "individual"
        },
        "type": "graph",
        "xaxis": {
          "buckets": null,
          "mode": "time",
          "name": null,
          "show": true,
          "values": []
        },
        "yaxes": [
          {
            "$$hashKey": "object:979",
            "format": "short",
            "label": null,
            "logBase": 1,
            "max": null,
            "min": "90",
            "show": true
          },
          {
            "$$hashKey": "object:980",
            "format": "short",
            "label": null,
            "logBase": 1,
            "max": null,
            "min": null,
            "show": true
          }
        ],
        "yaxis": {
          "align": false,
          "alignLevel": null
        }
      },
      {
        "aliasColors": {},
        "bars": false,
        "dashLength": 10,
        "dashes": false,
        "datasource": null,
        "fieldConfig": {
          "defaults": {},
          "overrides": []
        },
        "fill": 1,
        "fillGradient": 0,
        "gridPos": {
          "h": 5,
          "w": 9,
          "x": 15,
          "y": 0
        },
        "hiddenSeries": false,
        "id": 19,
        "legend": {
          "avg": false,
          "current": false,
          "max": false,
          "min": false,
          "show": false,
          "total": false,
          "values": false
        },
        "lines": true,
        "linewidth": 2,
        "nullPointMode": "null",
        "options": {
          "alertThreshold": true
        },
        "percentage": false,
        "pluginVersion": "7.5.1",
        "pointradius": 2,
        "points": false,
        "renderer": "flot",
        "seriesOverrides": [],
        "spaceLength": 10,
        "stack": false,
        "steppedLine": false,
        "targets": [
          {
            "groupBy": [
              {
                "params": [
                  "$__interval"
                ],
                "type": "time"
              },
              {
                "params": [
                  "null"
                ],
                "type": "fill"
              }
            ],
            "orderByTime": "ASC",
            "policy": "default",
            "query": "from(bucket: \"f1telemetry\")\n  |> range(start: v.timeRangeStart, stop:v.timeRangeStop)\n  |> filter(fn: (r) =>\n    r._measurement == \"test_database\" and\n    r._field == \"tyresWear_FL\"\n  )",
            "refId": "FL",
            "resultFormat": "time_series",
            "select": [
              [
                {
                  "params": [
                    "value"
                  ],
                  "type": "field"
                },
                {
                  "params": [],
                  "type": "mean"
                }
              ]
            ],
            "tags": []
          },
          {
            "groupBy": [
              {
                "params": [
                  "$__interval"
                ],
                "type": "time"
              },
              {
                "params": [
                  "null"
                ],
                "type": "fill"
              }
            ],
            "hide": false,
            "orderByTime": "ASC",
            "policy": "default",
            "query": "from(bucket: \"f1telemetry\")\n  |> range(start: v.timeRangeStart, stop:v.timeRangeStop)\n  |> filter(fn: (r) =>\n    r._measurement == \"test_database\" and\n    r._field == \"tyresWear_FR\"\n  )",
            "refId": "FR",
            "resultFormat": "time_series",
            "select": [
              [
                {
                  "params": [
                    "value"
                  ],
                  "type": "field"
                },
                {
                  "params": [],
                  "type": "mean"
                }
              ]
            ],
            "tags": []
          },
          {
            "groupBy": [
              {
                "params": [
                  "$__interval"
                ],
                "type": "time"
              },
              {
                "params": [
                  "null"
                ],
                "type": "fill"
              }
            ],
            "hide": false,
            "orderByTime": "ASC",
            "policy": "default",
            "query": "from(bucket: \"f1telemetry\")\n  |> range(start: v.timeRangeStart, stop:v.timeRangeStop)\n  |> filter(fn: (r) =>\n    r._measurement == \"test_database\" and\n    r._field == \"tyresWear_RL\"\n  )",
            "refId": "RL",
            "resultFormat": "time_series",
            "select": [
              [
                {
                  "params": [
                    "value"
                  ],
                  "type": "field"
                },
                {
                  "params": [],
                  "type": "mean"
                }
              ]
            ],
            "tags": []
          },
          {
            "groupBy": [
              {
                "params": [
                  "$__interval"
                ],
                "type": "time"
              },
              {
                "params": [
                  "null"
                ],
                "type": "fill"
              }
            ],
            "hide": false,
            "orderByTime": "ASC",
            "policy": "default",
            "query": "from(bucket: \"f1telemetry\")\n  |> range(start: v.timeRangeStart, stop:v.timeRangeStop)\n  |> filter(fn: (r) =>\n    r._measurement == \"test_database\" and\n    r._field == \"tyresWear_RR\"\n  )",
            "refId": "RR",
            "resultFormat": "time_series",
            "select": [
              [
                {
                  "params": [
                    "value"
                  ],
                  "type": "field"
                },
                {
                  "params": [],
                  "type": "mean"
                }
              ]
            ],
            "tags": []
          }
        ],
        "thresholds": [
          {
            "$$hashKey": "object:1923",
            "colorMode": "critical",
            "fill": true,
            "line": true,
            "op": "gt",
            "value": 35,
            "yaxis": "left"
          }
        ],
        "timeFrom": null,
        "timeRegions": [],
        "timeShift": null,
        "title": "Tyre Wear",
        "tooltip": {
          "shared": true,
          "sort": 0,
          "value_type": "individual"
        },
        "type": "graph",
        "xaxis": {
          "buckets": null,
          "mode": "time",
          "name": null,
          "show": true,
          "values": []
        },
        "yaxes": [
          {
            "$$hashKey": "object:362",
            "format": "short",
            "label": null,
            "logBase": 1,
            "max": "50",
            "min": "0",
            "show": true
          },
          {
            "$$hashKey": "object:363",
            "format": "short",
            "label": null,
            "logBase": 1,
            "max": null,
            "min": null,
            "show": true
          }
        ],
        "yaxis": {
          "align": false,
          "alignLevel": null
        }
      },
      {
        "datasource": null,
        "fieldConfig": {
          "defaults": {
            "color": {
              "mode": "thresholds"
            },
            "mappings": [],
            "thresholds": {
              "mode": "absolute",
              "steps": [
                {
                  "color": "green",
                  "value": null
                }
              ]
            }
          },
          "overrides": []
        },
        "gridPos": {
          "h": 3,
          "w": 3,
          "x": 0,
          "y": 5
        },
        "id": 14,
        "options": {
          "colorMode": "value",
          "graphMode": "area",
          "justifyMode": "auto",
          "orientation": "auto",
          "reduceOptions": {
            "calcs": [
              "lastNotNull"
            ],
            "fields": "",
            "values": false
          },
          "text": {},
          "textMode": "auto"
        },
        "pluginVersion": "7.5.1",
        "targets": [
          {
            "groupBy": [
              {
                "params": [
                  "$__interval"
                ],
                "type": "time"
              },
              {
                "params": [
                  "null"
                ],
                "type": "fill"
              }
            ],
            "orderByTime": "ASC",
            "policy": "default",
            "query": "from(bucket: \"f1telemetry\")\n  |> range(start: v.timeRangeStart, stop:v.timeRangeStop)\n  |> filter(fn: (r) =>\n    r._measurement == \"test_database\" and\n    r._field == \"currentLapNum\"\n  )",
            "refId": "A",
            "resultFormat": "time_series",
            "select": [
              [
                {
                  "params": [
                    "value"
                  ],
                  "type": "field"
                },
                {
                  "params": [],
                  "type": "mean"
                }
              ]
            ],
            "tags": []
          }
        ],
        "title": "Lap Number",
        "type": "stat"
      },
      {
        "datasource": null,
        "fieldConfig": {
          "defaults": {
            "color": {
              "mode": "thresholds"
            },
            "mappings": [
              {
                "from": "",
                "id": 1,
                "text": "Rich",
                "to": "",
                "type": 1,
                "value": "2"
              },
              {
                "from": "",
                "id": 2,
                "text": "Standard",
                "to": "",
                "type": 1,
                "value": "1"
              },
              {
                "from": "",
                "id": 3,
                "text": "Lean",
                "to": "",
                "type": 1,
                "value": "0"
              },
              {
                "from": "",
                "id": 4,
                "text": "MAX",
                "to": "",
                "type": 1,
                "value": "3"
              }
            ],
            "thresholds": {
              "mode": "absolute",
              "steps": [
                {
                  "color": "green",
                  "value": null
                }
              ]
            }
          },
          "overrides": []
        },
        "gridPos": {
          "h": 3,
          "w": 3,
          "x": 3,
          "y": 5
        },
        "id": 20,
        "options": {
          "colorMode": "value",
          "graphMode": "area",
          "justifyMode": "auto",
          "orientation": "auto",
          "reduceOptions": {
            "calcs": [
              "lastNotNull"
            ],
            "fields": "",
            "values": false
          },
          "text": {},
          "textMode": "auto"
        },
        "pluginVersion": "7.5.1",
        "targets": [
          {
            "groupBy": [
              {
                "params": [
                  "$__interval"
                ],
                "type": "time"
              },
              {
                "params": [
                  "null"
                ],
                "type": "fill"
              }
            ],
            "orderByTime": "ASC",
            "policy": "default",
            "query": "from(bucket: \"f1telemetry\")\n  |> range(start: v.timeRangeStart, stop:v.timeRangeStop)\n  |> filter(fn: (r) =>\n    r._measurement == \"test_database\" and\n    r._field == \"fuelMix\"\n  )",
            "refId": "A",
            "resultFormat": "time_series",
            "select": [
              [
                {
                  "params": [
                    "value"
                  ],
                  "type": "field"
                },
                {
                  "params": [],
                  "type": "mean"
                }
              ]
            ],
            "tags": []
          }
        ],
        "title": "FuelMix",
        "type": "stat"
      },
      {
        "aliasColors": {},
        "bars": false,
        "dashLength": 10,
        "dashes": false,
        "datasource": null,
        "fieldConfig": {
          "defaults": {},
          "overrides": []
        },
        "fill": 0,
        "fillGradient": 0,
        "gridPos": {
          "h": 6,
          "w": 9,
          "x": 6,
          "y": 5
        },
        "hiddenSeries": false,
        "id": 24,
        "legend": {
          "avg": false,
          "current": false,
          "max": false,
          "min": false,
          "show": false,
          "total": false,
          "values": false
        },
        "lines": true,
        "linewidth": 2,
        "nullPointMode": "null",
        "options": {
          "alertThreshold": true
        },
        "percentage": false,
        "pluginVersion": "7.5.1",
        "pointradius": 2,
        "points": false,
        "renderer": "flot",
        "seriesOverrides": [],
        "spaceLength": 10,
        "stack": false,
        "steppedLine": false,
        "targets": [
          {
            "groupBy": [
              {
                "params": [
                  "$__interval"
                ],
                "type": "time"
              },
              {
                "params": [
                  "null"
                ],
                "type": "fill"
              }
            ],
            "orderByTime": "ASC",
            "policy": "default",
            "query": "from(bucket: \"f1telemetry\")\n  |> range(start: v.timeRangeStart, stop:v.timeRangeStop)\n  |> filter(fn: (r) =>\n    r._measurement == \"test_database\" and\n    r._field == \"tyresInnerTemperature_FL\"\n  )",
            "refId": "FL",
            "resultFormat": "time_series",
            "select": [
              [
                {
                  "params": [
                    "value"
                  ],
                  "type": "field"
                },
                {
                  "params": [],
                  "type": "mean"
                }
              ]
            ],
            "tags": []
          },
          {
            "groupBy": [
              {
                "params": [
                  "$__interval"
                ],
                "type": "time"
              },
              {
                "params": [
                  "null"
                ],
                "type": "fill"
              }
            ],
            "hide": false,
            "orderByTime": "ASC",
            "policy": "default",
            "query": "from(bucket: \"f1telemetry\")\n  |> range(start: v.timeRangeStart, stop:v.timeRangeStop)\n  |> filter(fn: (r) =>\n    r._measurement == \"test_database\" and\n    r._field == \"tyresInnerTemperature_FR\"\n  )",
            "refId": "FR",
            "resultFormat": "time_series",
            "select": [
              [
                {
                  "params": [
                    "value"
                  ],
                  "type": "field"
                },
                {
                  "params": [],
                  "type": "mean"
                }
              ]
            ],
            "tags": []
          },
          {
            "groupBy": [
              {
                "params": [
                  "$__interval"
                ],
                "type": "time"
              },
              {
                "params": [
                  "null"
                ],
                "type": "fill"
              }
            ],
            "hide": false,
            "orderByTime": "ASC",
            "policy": "default",
            "query": "from(bucket: \"f1telemetry\")\n  |> range(start: v.timeRangeStart, stop:v.timeRangeStop)\n  |> filter(fn: (r) =>\n    r._measurement == \"test_database\" and\n    r._field == \"tyresInnerTemperature_RL\"\n  )",
            "refId": "RL",
            "resultFormat": "time_series",
            "select": [
              [
                {
                  "params": [
                    "value"
                  ],
                  "type": "field"
                },
                {
                  "params": [],
                  "type": "mean"
                }
              ]
            ],
            "tags": []
          },
          {
            "groupBy": [
              {
                "params": [
                  "$__interval"
                ],
                "type": "time"
              },
              {
                "params": [
                  "null"
                ],
                "type": "fill"
              }
            ],
            "hide": false,
            "orderByTime": "ASC",
            "policy": "default",
            "query": "from(bucket: \"f1telemetry\")\n  |> range(start: v.timeRangeStart, stop:v.timeRangeStop)\n  |> filter(fn: (r) =>\n    r._measurement == \"test_database\" and\n    r._field == \"tyresInnerTemperature_RR\"\n  )",
            "refId": "RR",
            "resultFormat": "time_series",
            "select": [
              [
                {
                  "params": [
                    "value"
                  ],
                  "type": "field"
                },
                {
                  "params": [],
                  "type": "mean"
                }
              ]
            ],
            "tags": []
          }
        ],
        "thresholds": [
          {
            "$$hashKey": "object:1887",
            "colorMode": "critical",
            "fill": true,
            "line": true,
            "op": "lt",
            "value": 80,
            "yaxis": "left"
          }
        ],
        "timeFrom": null,
        "timeRegions": [],
        "timeShift": null,
        "title": "Tyre Inner Temperature",
        "tooltip": {
          "shared": true,
          "sort": 0,
          "value_type": "individual"
        },
        "type": "graph",
        "xaxis": {
          "buckets": null,
          "mode": "time",
          "name": null,
          "show": true,
          "values": []
        },
        "yaxes": [
          {
            "$$hashKey": "object:362",
            "format": "short",
            "label": null,
            "logBase": 1,
            "max": "120",
            "min": "70",
            "show": true
          },
          {
            "$$hashKey": "object:363",
            "format": "short",
            "label": null,
            "logBase": 1,
            "max": null,
            "min": null,
            "show": true
          }
        ],
        "yaxis": {
          "align": false,
          "alignLevel": null
        }
      },
      {
        "aliasColors": {},
        "bars": false,
        "dashLength": 10,
        "dashes": false,
        "datasource": null,
        "fieldConfig": {
          "defaults": {},
          "overrides": []
        },
        "fill": 0,
        "fillGradient": 0,
        "gridPos": {
          "h": 6,
          "w": 9,
          "x": 15,
          "y": 5
        },
        "hiddenSeries": false,
        "id": 18,
        "legend": {
          "avg": false,
          "current": false,
          "max": false,
          "min": false,
          "show": false,
          "total": false,
          "values": false
        },
        "lines": true,
        "linewidth": 2,
        "nullPointMode": "null",
        "options": {
          "alertThreshold": true
        },
        "percentage": false,
        "pluginVersion": "7.5.1",
        "pointradius": 2,
        "points": false,
        "renderer": "flot",
        "seriesOverrides": [],
        "spaceLength": 10,
        "stack": false,
        "steppedLine": false,
        "targets": [
          {
            "groupBy": [
              {
                "params": [
                  "$__interval"
                ],
                "type": "time"
              },
              {
                "params": [
                  "null"
                ],
                "type": "fill"
              }
            ],
            "orderByTime": "ASC",
            "policy": "default",
            "query": "from(bucket: \"f1telemetry\")\n  |> range(start: v.timeRangeStart, stop:v.timeRangeStop)\n  |> filter(fn: (r) =>\n    r._measurement == \"test_database\" and\n    r._field == \"tyresSurfaceTemperature_FL\"\n  )",
            "refId": "FL",
            "resultFormat": "time_series",
            "select": [
              [
                {
                  "params": [
                    "value"
                  ],
                  "type": "field"
                },
                {
                  "params": [],
                  "type": "mean"
                }
              ]
            ],
            "tags": []
          },
          {
            "groupBy": [
              {
                "params": [
                  "$__interval"
                ],
                "type": "time"
              },
              {
                "params": [
                  "null"
                ],
                "type": "fill"
              }
            ],
            "hide": false,
            "orderByTime": "ASC",
            "policy": "default",
            "query": "from(bucket: \"f1telemetry\")\n  |> range(start: v.timeRangeStart, stop:v.timeRangeStop)\n  |> filter(fn: (r) =>\n    r._measurement == \"test_database\" and\n    r._field == \"tyresSurfaceTemperature_FR\"\n  )",
            "refId": "FR",
            "resultFormat": "time_series",
            "select": [
              [
                {
                  "params": [
                    "value"
                  ],
                  "type": "field"
                },
                {
                  "params": [],
                  "type": "mean"
                }
              ]
            ],
            "tags": []
          },
          {
            "groupBy": [
              {
                "params": [
                  "$__interval"
                ],
                "type": "time"
              },
              {
                "params": [
                  "null"
                ],
                "type": "fill"
              }
            ],
            "hide": false,
            "orderByTime": "ASC",
            "policy": "default",
            "query": "from(bucket: \"f1telemetry\")\n  |> range(start: v.timeRangeStart, stop:v.timeRangeStop)\n  |> filter(fn: (r) =>\n    r._measurement == \"test_database\" and\n    r._field == \"tyresSurfaceTemperature_RL\"\n  )",
            "refId": "RL",
            "resultFormat": "time_series",
            "select": [
              [
                {
                  "params": [
                    "value"
                  ],
                  "type": "field"
                },
                {
                  "params": [],
                  "type": "mean"
                }
              ]
            ],
            "tags": []
          },
          {
            "groupBy": [
              {
                "params": [
                  "$__interval"
                ],
                "type": "time"
              },
              {
                "params": [
                  "null"
                ],
                "type": "fill"
              }
            ],
            "hide": false,
            "orderByTime": "ASC",
            "policy": "default",
            "query": "from(bucket: \"f1telemetry\")\n  |> range(start: v.timeRangeStart, stop:v.timeRangeStop)\n  |> filter(fn: (r) =>\n    r._measurement == \"test_database\" and\n    r._field == \"tyresSurfaceTemperature_RR\"\n  )",
            "refId": "RR",
            "resultFormat": "time_series",
            "select": [
              [
                {
                  "params": [
                    "value"
                  ],
                  "type": "field"
                },
                {
                  "params": [],
                  "type": "mean"
                }
              ]
            ],
            "tags": []
          }
        ],
        "thresholds": [
          {
            "$$hashKey": "object:1776",
            "colorMode": "critical",
            "fill": true,
            "line": true,
            "op": "lt",
            "value": 80,
            "yaxis": "left"
          }
        ],
        "timeFrom": null,
        "timeRegions": [],
        "timeShift": null,
        "title": "Tyre Surface Temperature",
        "tooltip": {
          "shared": true,
          "sort": 0,
          "value_type": "individual"
        },
        "type": "graph",
        "xaxis": {
          "buckets": null,
          "mode": "time",
          "name": null,
          "show": true,
          "values": []
        },
        "yaxes": [
          {
            "$$hashKey": "object:362",
            "format": "short",
            "label": null,
            "logBase": 1,
            "max": "120",
            "min": "70",
            "show": true
          },
          {
            "$$hashKey": "object:363",
            "format": "short",
            "label": null,
            "logBase": 1,
            "max": null,
            "min": null,
            "show": true
          }
        ],
        "yaxis": {
          "align": false,
          "alignLevel": null
        }
      },
      {
        "datasource": null,
        "fieldConfig": {
          "defaults": {
            "color": {
              "mode": "thresholds"
            },
            "mappings": [],
            "thresholds": {
              "mode": "absolute",
              "steps": [
                {
                  "color": "green",
                  "value": null
                }
              ]
            }
          },
          "overrides": []
        },
        "gridPos": {
          "h": 3,
          "w": 3,
          "x": 0,
          "y": 8
        },
        "id": 22,
        "options": {
          "colorMode": "value",
          "graphMode": "area",
          "justifyMode": "auto",
          "orientation": "auto",
          "reduceOptions": {
            "calcs": [
              "lastNotNull"
            ],
            "fields": "",
            "values": false
          },
          "text": {},
          "textMode": "auto"
        },
        "pluginVersion": "7.5.1",
        "targets": [
          {
            "groupBy": [
              {
                "params": [
                  "$__interval"
                ],
                "type": "time"
              },
              {
                "params": [
                  "null"
                ],
                "type": "fill"
              }
            ],
            "orderByTime": "ASC",
            "policy": "default",
            "query": "from(bucket: \"f1telemetry\")\n  |> range(start: v.timeRangeStart, stop:v.timeRangeStop)\n  |> filter(fn: (r) =>\n    r._measurement == \"test_database\" and\n    r._field == \"tyresAgeLaps\"\n  )",
            "refId": "A",
            "resultFormat": "time_series",
            "select": [
              [
                {
                  "params": [
                    "value"
                  ],
                  "type": "field"
                },
                {
                  "params": [],
                  "type": "mean"
                }
              ]
            ],
            "tags": []
          }
        ],
        "title": "TyreAge",
        "type": "stat"
      },
      {
        "datasource": null,
        "fieldConfig": {
          "defaults": {
            "color": {
              "mode": "thresholds"
            },
            "mappings": [],
            "max": 2,
            "min": 0,
            "thresholds": {
              "mode": "absolute",
              "steps": [
                {
                  "color": "red",
                  "value": null
                },
                {
                  "color": "green",
                  "value": 0.5
                }
              ]
            }
          },
          "overrides": []
        },
        "gridPos": {
          "h": 3,
          "w": 3,
          "x": 3,
          "y": 8
        },
        "id": 21,
        "options": {
          "colorMode": "value",
          "graphMode": "area",
          "justifyMode": "auto",
          "orientation": "auto",
          "reduceOptions": {
            "calcs": [
              "lastNotNull"
            ],
            "fields": "",
            "values": false
          },
          "text": {},
          "textMode": "auto"
        },
        "pluginVersion": "7.5.1",
        "targets": [
          {
            "groupBy": [
              {
                "params": [
                  "$__interval"
                ],
                "type": "time"
              },
              {
                "params": [
                  "null"
                ],
                "type": "fill"
              }
            ],
            "orderByTime": "ASC",
            "policy": "default",
            "query": "from(bucket: \"f1telemetry\")\n  |> range(start: v.timeRangeStart, stop:v.timeRangeStop)\n  |> filter(fn: (r) =>\n    r._measurement == \"test_database\" and\n    r._field == \"fuelRemainingLaps\"\n  )",
            "refId": "A",
            "resultFormat": "time_series",
            "select": [
              [
                {
                  "params": [
                    "value"
                  ],
                  "type": "field"
                },
                {
                  "params": [],
                  "type": "mean"
                }
              ]
            ],
            "tags": []
          }
        ],
        "title": "Fuel rem. Laps",
        "type": "stat"
      },
      {
        "datasource": null,
        "fieldConfig": {
          "defaults": {
            "color": {
              "mode": "continuous-GrYlRd"
            },
            "mappings": [],
            "max": 50,
            "min": 0,
            "thresholds": {
              "mode": "absolute",
              "steps": [
                {
                  "color": "green",
                  "value": null
                }
              ]
            },
            "unit": "celsius"
          },
          "overrides": []
        },
        "gridPos": {
          "h": 7,
          "w": 3,
          "x": 0,
          "y": 11
        },
        "id": 25,
        "options": {
          "colorMode": "value",
          "graphMode": "area",
          "justifyMode": "auto",
          "orientation": "auto",
          "reduceOptions": {
            "calcs": [
              "lastNotNull"
            ],
            "fields": "",
            "values": false
          },
          "text": {},
          "textMode": "auto"
        },
        "pluginVersion": "7.5.1",
        "targets": [
          {
            "groupBy": [
              {
                "params": [
                  "$__interval"
                ],
                "type": "time"
              },
              {
                "params": [
                  "null"
                ],
                "type": "fill"
              }
            ],
            "hide": false,
            "orderByTime": "ASC",
            "policy": "default",
            "query": "from(bucket: \"f1telemetry\")\n  |> range(start: v.timeRangeStart, stop:v.timeRangeStop)\n  |> filter(fn: (r) =>\n    r._measurement == \"test_database\" and\n    r._field == \"trackTemperature\"\n  )",
            "refId": "RR",
            "resultFormat": "time_series",
            "select": [
              [
                {
                  "params": [
                    "value"
                  ],
                  "type": "field"
                },
                {
                  "params": [],
                  "type": "mean"
                }
              ]
            ],
            "tags": []
          }
        ],
        "timeFrom": null,
        "timeShift": null,
        "title": "Track Temperature",
        "type": "stat"
      },
      {
        "datasource": null,
        "fieldConfig": {
          "defaults": {
            "color": {
              "mode": "continuous-GrYlRd"
            },
            "mappings": [],
            "max": 50,
            "min": 0,
            "thresholds": {
              "mode": "absolute",
              "steps": [
                {
                  "color": "green",
                  "value": null
                }
              ]
            },
            "unit": "celsius"
          },
          "overrides": []
        },
        "gridPos": {
          "h": 7,
          "w": 3,
          "x": 3,
          "y": 11
        },
        "id": 26,
        "options": {
          "colorMode": "value",
          "graphMode": "area",
          "justifyMode": "auto",
          "orientation": "auto",
          "reduceOptions": {
            "calcs": [
              "lastNotNull"
            ],
            "fields": "",
            "values": false
          },
          "text": {},
          "textMode": "auto"
        },
        "pluginVersion": "7.5.1",
        "targets": [
          {
            "groupBy": [
              {
                "params": [
                  "$__interval"
                ],
                "type": "time"
              },
              {
                "params": [
                  "null"
                ],
                "type": "fill"
              }
            ],
            "hide": false,
            "orderByTime": "ASC",
            "policy": "default",
            "query": "from(bucket: \"f1telemetry\")\n  |> range(start: v.timeRangeStart, stop:v.timeRangeStop)\n  |> filter(fn: (r) =>\n    r._measurement == \"test_database\" and\n    r._field == \"airTemperature\"\n  )",
            "refId": "RR",
            "resultFormat": "time_series",
            "select": [
              [
                {
                  "params": [
                    "value"
                  ],
                  "type": "field"
                },
                {
                  "params": [],
                  "type": "mean"
                }
              ]
            ],
            "tags": []
          }
        ],
        "timeFrom": null,
        "timeShift": null,
        "title": "Air Temperature",
        "type": "stat"
      },
      {
        "aliasColors": {},
        "bars": false,
        "dashLength": 10,
        "dashes": false,
        "datasource": null,
        "fieldConfig": {
          "defaults": {},
          "overrides": []
        },
        "fill": 1,
        "fillGradient": 0,
        "gridPos": {
          "h": 7,
          "w": 9,
          "x": 6,
          "y": 11
        },
        "hiddenSeries": false,
        "id": 27,
        "legend": {
          "avg": false,
          "current": false,
          "max": false,
          "min": false,
          "show": false,
          "total": false,
          "values": false
        },
        "lines": true,
        "linewidth": 1,
        "nullPointMode": "null",
        "options": {
          "alertThreshold": true
        },
        "percentage": false,
        "pluginVersion": "7.5.1",
        "pointradius": 2,
        "points": false,
        "renderer": "flot",
        "seriesOverrides": [],
        "spaceLength": 10,
        "stack": false,
        "steppedLine": false,
        "targets": [
          {
            "groupBy": [
              {
                "params": [
                  "$__interval"
                ],
                "type": "time"
              },
              {
                "params": [
                  "null"
                ],
                "type": "fill"
              }
            ],
            "orderByTime": "ASC",
            "policy": "default",
            "query": "from(bucket: \"f1telemetry\")\n  |> range(start: v.timeRangeStart, stop:v.timeRangeStop)\n  |> filter(fn: (r) =>\n    r._measurement == \"test_database\" and\n    r._field == \"fuelRemainingLaps\"\n  )",
            "refId": "A",
            "resultFormat": "time_series",
            "select": [
              [
                {
                  "params": [
                    "value"
                  ],
                  "type": "field"
                },
                {
                  "params": [],
                  "type": "mean"
                }
              ]
            ],
            "tags": []
          }
        ],
        "thresholds": [
          {
            "$$hashKey": "object:1742",
            "colorMode": "critical",
            "fill": true,
            "line": true,
            "op": "lt",
            "value": 0.5,
            "yaxis": "left"
          }
        ],
        "timeFrom": null,
        "timeRegions": [],
        "timeShift": null,
        "title": "Fuel rem. Laps",
        "tooltip": {
          "shared": true,
          "sort": 0,
          "value_type": "individual"
        },
        "type": "graph",
        "xaxis": {
          "buckets": null,
          "mode": "time",
          "name": null,
          "show": true,
          "values": []
        },
        "yaxes": [
          {
            "$$hashKey": "object:94",
            "decimals": null,
            "format": "short",
            "label": null,
            "logBase": 1,
            "max": "3",
            "min": "0",
            "show": true
          },
          {
            "$$hashKey": "object:95",
            "format": "short",
            "label": null,
            "logBase": 1,
            "max": null,
            "min": null,
            "show": true
          }
        ],
        "yaxis": {
          "align": false,
          "alignLevel": null
        }
      },
      {
        "aliasColors": {},
        "bars": false,
        "dashLength": 10,
        "dashes": false,
        "datasource": null,
        "fieldConfig": {
          "defaults": {},
          "overrides": []
        },
        "fill": 1,
        "fillGradient": 0,
        "gridPos": {
          "h": 7,
          "w": 9,
          "x": 15,
          "y": 11
        },
        "hiddenSeries": false,
        "id": 28,
        "legend": {
          "avg": false,
          "current": false,
          "max": false,
          "min": false,
          "show": false,
          "total": false,
          "values": false
        },
        "lines": true,
        "linewidth": 1,
        "nullPointMode": "null",
        "options": {
          "alertThreshold": true
        },
        "percentage": false,
        "pluginVersion": "7.5.1",
        "pointradius": 2,
        "points": false,
        "renderer": "flot",
        "seriesOverrides": [],
        "spaceLength": 10,
        "stack": false,
        "steppedLine": false,
        "targets": [
          {
            "groupBy": [
              {
                "params": [
                  "$__interval"
                ],
                "type": "time"
              },
              {
                "params": [
                  "null"
                ],
                "type": "fill"
              }
            ],
            "orderByTime": "ASC",
            "policy": "default",
            "query": "from(bucket: \"f1telemetry\")\n  |> range(start: v.timeRangeStart, stop:v.timeRangeStop)\n  |> filter(fn: (r) =>\n    r._measurement == \"test_database\" and\n    r._field == \"engineTemperature\"\n  )",
            "refId": "A",
            "resultFormat": "time_series",
            "select": [
              [
                {
                  "params": [
                    "value"
                  ],
                  "type": "field"
                },
                {
                  "params": [],
                  "type": "mean"
                }
              ]
            ],
            "tags": []
          }
        ],
        "thresholds": [
          {
            "$$hashKey": "object:64",
            "colorMode": "warning",
            "fill": true,
            "line": true,
            "op": "gt",
            "value": 120,
            "yaxis": "left"
          }
        ],
        "timeFrom": null,
        "timeRegions": [],
        "timeShift": null,
        "title": "Engine Temperature",
        "tooltip": {
          "shared": true,
          "sort": 0,
          "value_type": "individual"
        },
        "type": "graph",
        "xaxis": {
          "buckets": null,
          "mode": "time",
          "name": null,
          "show": true,
          "values": []
        },
        "yaxes": [
          {
            "$$hashKey": "object:2021",
            "format": "short",
            "label": null,
            "logBase": 1,
            "max": null,
            "min": null,
            "show": true
          },
          {
            "$$hashKey": "object:2022",
            "format": "short",
            "label": null,
            "logBase": 1,
            "max": null,
            "min": null,
            "show": true
          }
        ],
        "yaxis": {
          "align": false,
          "alignLevel": null
        }
      }
    ],
    "refresh": "30s",
    "schemaVersion": 27,
    "style": "dark",
    "tags": [],
    "templating": {
      "list": []
    },
    "time": {
      "from": "now-15m",
      "to": "now"
    },
    "timepicker": {
      "refresh_intervals": [
        "5ms",
        "1s",
        "5s",
        "10s",
        "30s",
        "1m",
        "5m",
        "15m",
        "30m",
        "1h",
        "2h",
        "1d"
      ]
    },
    "timezone": "",
    "title": "Race Engineer Dashboard",
    "uid": "tYTxFrQGz",
    "version": 18
  }